…
…

### Exercise 5

``` r
dn %>% 
  count(state) %>%   
    arrange(desc(n))
```

    ## # A tibble: 51 × 2
    ##    state     n
    ##    <chr> <int>
    ##  1 CA      403
    ##  2 TX      200
    ##  3 FL      140
    ##  4 AZ       83
    ##  5 IL       56
    ##  6 NY       56
    ##  7 WA       49
    ##  8 OH       44
    ##  9 MO       42
    ## 10 PA       40
    ## # … with 41 more rows

``` r
dn %>% 
  count(state) %>% 
    arrange(n)
```

    ## # A tibble: 51 × 2
    ##    state     n
    ##    <chr> <int>
    ##  1 DE        1
    ##  2 DC        2
    ##  3 VT        2
    ##  4 AK        3
    ##  5 IA        3
    ##  6 NH        3
    ##  7 SD        3
    ##  8 WV        3
    ##  9 LA        4
    ## 10 MT        4
    ## # … with 41 more rows

Most - CA, Least- DE Not surprising given the respective sizes and
population densities of these states

``` r
lq %>% 
     count(state) %>%   
     arrange(desc(n))
```

    ## # A tibble: 59 × 2
    ##    state     n
    ##    <chr> <int>
    ##  1 TX      237
    ##  2 FL       74
    ##  3 CA       56
    ##  4 GA       41
    ##  5 TN       30
    ##  6 OK       29
    ##  7 LA       28
    ##  8 CO       27
    ##  9 NM       19
    ## 10 NY       19
    ## # … with 49 more rows

``` r
lq %>% 
    filter(country == "United States") %>% 
    count(state) %>%   
     arrange(n)
```

    ## # A tibble: 48 × 2
    ##    state     n
    ##    <chr> <int>
    ##  1 ME        1
    ##  2 AK        2
    ##  3 NH        2
    ##  4 RI        2
    ##  5 SD        2
    ##  6 VT        2
    ##  7 WV        3
    ##  8 WY        3
    ##  9 IA        4
    ## 10 MI        4
    ## # … with 38 more rows
…
…

### Exercise 6

``` r
dn %>%
          count(state) %>%
          inner_join(states, by = c("state" = "abbreviation")) %>% 
          mutate(location_density = area/n) %>% 
          arrange(location_density)
```

    ## # A tibble: 51 × 5
    ##    state     n name                     area location_density
    ##    <chr> <int> <chr>                   <dbl>            <dbl>
    ##  1 DC        2 District of Columbia     68.3             34.2
    ##  2 RI        5 Rhode Island           1545.             309. 
    ##  3 CA      403 California           163695.             406. 
    ##  4 CT       12 Connecticut            5543.             462. 
    ##  5 FL      140 Florida               65758.             470. 
    ##  6 MD       26 Maryland              12406.             477. 
    ##  7 NJ       10 New Jersey             8723.             872. 
    ##  8 NY       56 New York              54555.             974. 
    ##  9 IN       37 Indiana               36420.             984. 
    ## 10 OH       44 Ohio                  44826.            1019. 
    ## # … with 41 more rows

``` r
lq %>%
          count(state) %>%
          inner_join(states, by = c("state" = "abbreviation")) %>% 
          mutate(location_density = area/n) %>% 
          arrange(location_density)
```

    ## # A tibble: 48 × 5
    ##    state     n name             area location_density
    ##    <chr> <int> <chr>           <dbl>            <dbl>
    ##  1 RI        2 Rhode Island    1545.             772.
    ##  2 FL       74 Florida        65758.             889.
    ##  3 CT        6 Connecticut     5543.             924.
    ##  4 MD       13 Maryland       12406.             954.
    ##  5 TX      237 Texas         268596.            1133.
    ##  6 TN       30 Tennessee      42144.            1405.
    ##  7 GA       41 Georgia        59425.            1449.
    ##  8 NJ        5 New Jersey      8723.            1745.
    ##  9 MA        6 Massachusetts  10554.            1759.
    ## 10 LA       28 Louisiana      52378.            1871.
    ## # … with 38 more rows
…
